module github.com/outcatcher/anwil

go 1.19

require (
	github.com/docker/docker v20.10.24+incompatible
	github.com/docker/go-connections v0.4.0
	github.com/go-playground/validator/v10 v10.11.2
	github.com/golang-jwt/jwt/v4 v4.4.3
	github.com/google/uuid v1.3.0
	github.com/hashicorp/golang-lru/v2 v2.0.2
	github.com/imdario/mergo v0.3.15
	github.com/jmoiron/sqlx v1.3.5
	github.com/labstack/echo-jwt v0.0.0-20221127215225-c84d41a71003
	github.com/labstack/echo/v4 v4.10.2
	github.com/lib/pq v1.10.7
	github.com/pressly/goose/v3 v3.9.0
	github.com/sethvargo/go-envconfig v0.9.0
	github.com/stretchr/testify v1.8.1
	github.com/wagslane/go-password-validator v0.3.0
	golang.org/x/text v0.7.0
	gopkg.in/yaml.v3 v3.0.1
)

require (
	github.com/Microsoft/go-winio v0.5.2 // indirect
	github.com/davecgh/go-spew v1.1.1 // indirect
	github.com/docker/distribution v2.8.1+incompatible // indirect
	github.com/docker/go-units v0.4.0 // indirect
	github.com/go-playground/locales v0.14.1 // indirect
	github.com/go-playground/universal-translator v0.18.1 // indirect
	github.com/gogo/protobuf v1.3.2 // indirect
	github.com/golang-jwt/jwt v3.2.2+incompatible // indirect
	github.com/google/go-cmp v0.5.9 // indirect
	github.com/kr/text v0.2.0 // indirect
	github.com/labstack/gommon v0.4.0 // indirect
	github.com/leodido/go-urn v1.2.1 // indirect
	github.com/mattn/go-colorable v0.1.13 // indirect
	github.com/mattn/go-isatty v0.0.17 // indirect
	github.com/morikuni/aec v1.0.0 // indirect
	github.com/opencontainers/go-digest v1.0.0 // indirect
	github.com/opencontainers/image-spec v1.0.2 // indirect
	github.com/pkg/errors v0.9.1 // indirect
	github.com/pmezard/go-difflib v1.0.0 // indirect
	github.com/sirupsen/logrus v1.9.0 // indirect
	github.com/stretchr/objx v0.5.0 // indirect
	github.com/valyala/bytebufferpool v1.0.0 // indirect
	github.com/valyala/fasttemplate v1.2.2 // indirect
	golang.org/x/crypto v0.6.0 // indirect
	golang.org/x/net v0.7.0 // indirect
	golang.org/x/sys v0.5.0 // indirect
	golang.org/x/time v0.3.0 // indirect
	gotest.tools/v3 v3.4.0 // indirect
)
